<mxfile host="app.diagrams.net" modified="2020-12-14T14:46:12.195Z" agent="5.0 (Windows NT 10.0; Win64; x64) AppleWebKit/537.36 (KHTML, like Gecko) Chrome/86.0.4240.198 Safari/537.36 OPR/72.0.3815.400" etag="xFt5gwiUFUU4zibgAo_U" version="14.0.1" type="gitlab">
  <diagram id="1cy_lWRt2jTCbtdeRXHz" name="Page-1">
    <mxGraphModel dx="1760" dy="1006" grid="1" gridSize="10" guides="1" tooltips="1" connect="1" arrows="1" fold="1" page="1" pageScale="1" pageWidth="850" pageHeight="1100" math="0" shadow="0">
      <root>
        <mxCell id="0" />
        <mxCell id="1" parent="0" />
        <mxCell id="ZQ5nlC2-4Hd2Qe9FV0_h-1" value="&lt;font style=&quot;font-size: 17px&quot;&gt;FLOW CHART CODE CHALLENGE&lt;/font&gt;" style="text;html=1;strokeColor=none;fillColor=none;align=center;verticalAlign=middle;whiteSpace=wrap;rounded=0;fontStyle=1" vertex="1" parent="1">
          <mxGeometry x="280" y="20" width="310" height="20" as="geometry" />
        </mxCell>
        <mxCell id="ZQ5nlC2-4Hd2Qe9FV0_h-6" style="edgeStyle=orthogonalEdgeStyle;rounded=0;orthogonalLoop=1;jettySize=auto;html=1;exitX=0.5;exitY=1;exitDx=0;exitDy=0;entryX=0.5;entryY=0;entryDx=0;entryDy=0;fillColor=#d5e8d4;strokeColor=#82b366;" edge="1" parent="1" source="ZQ5nlC2-4Hd2Qe9FV0_h-2" target="ZQ5nlC2-4Hd2Qe9FV0_h-3">
          <mxGeometry relative="1" as="geometry" />
        </mxCell>
        <mxCell id="ZQ5nlC2-4Hd2Qe9FV0_h-2" value="Mulai" style="rounded=1;whiteSpace=wrap;html=1;fillColor=#d5e8d4;strokeColor=#82b366;fontStyle=1" vertex="1" parent="1">
          <mxGeometry x="380" y="90" width="120" height="60" as="geometry" />
        </mxCell>
        <mxCell id="ZQ5nlC2-4Hd2Qe9FV0_h-7" style="edgeStyle=orthogonalEdgeStyle;rounded=0;orthogonalLoop=1;jettySize=auto;html=1;exitX=0.5;exitY=1;exitDx=0;exitDy=0;entryX=0.5;entryY=0;entryDx=0;entryDy=0;fillColor=#d5e8d4;strokeColor=#82b366;" edge="1" parent="1" source="ZQ5nlC2-4Hd2Qe9FV0_h-3" target="ZQ5nlC2-4Hd2Qe9FV0_h-4">
          <mxGeometry relative="1" as="geometry" />
        </mxCell>
        <mxCell id="ZQ5nlC2-4Hd2Qe9FV0_h-3" value="&lt;b&gt;Memilih Jersey&lt;/b&gt;" style="shape=parallelogram;perimeter=parallelogramPerimeter;whiteSpace=wrap;html=1;fixedSize=1;" vertex="1" parent="1">
          <mxGeometry x="380" y="200" width="120" height="60" as="geometry" />
        </mxCell>
        <mxCell id="ZQ5nlC2-4Hd2Qe9FV0_h-9" style="edgeStyle=orthogonalEdgeStyle;rounded=0;orthogonalLoop=1;jettySize=auto;html=1;exitX=0.5;exitY=1;exitDx=0;exitDy=0;fillColor=#d5e8d4;strokeColor=#82b366;" edge="1" parent="1" source="ZQ5nlC2-4Hd2Qe9FV0_h-4">
          <mxGeometry relative="1" as="geometry">
            <mxPoint x="440" y="400" as="targetPoint" />
          </mxGeometry>
        </mxCell>
        <mxCell id="ZQ5nlC2-4Hd2Qe9FV0_h-4" value="&lt;b&gt;Tampilkan List &lt;br&gt;Jersey&lt;/b&gt;" style="shape=parallelogram;perimeter=parallelogramPerimeter;whiteSpace=wrap;html=1;fixedSize=1;" vertex="1" parent="1">
          <mxGeometry x="380" y="300" width="120" height="60" as="geometry" />
        </mxCell>
        <mxCell id="ZQ5nlC2-4Hd2Qe9FV0_h-30" style="edgeStyle=orthogonalEdgeStyle;rounded=0;orthogonalLoop=1;jettySize=auto;html=1;exitX=1;exitY=0.5;exitDx=0;exitDy=0;entryX=1;entryY=0.5;entryDx=0;entryDy=0;fillColor=#f8cecc;strokeColor=#b85450;strokeWidth=3;" edge="1" parent="1" source="ZQ5nlC2-4Hd2Qe9FV0_h-10" target="ZQ5nlC2-4Hd2Qe9FV0_h-20">
          <mxGeometry relative="1" as="geometry">
            <Array as="points">
              <mxPoint x="590" y="440" />
              <mxPoint x="590" y="890" />
            </Array>
          </mxGeometry>
        </mxCell>
        <mxCell id="ZQ5nlC2-4Hd2Qe9FV0_h-47" style="edgeStyle=orthogonalEdgeStyle;rounded=0;orthogonalLoop=1;jettySize=auto;html=1;exitX=0.5;exitY=1;exitDx=0;exitDy=0;entryX=0.5;entryY=0;entryDx=0;entryDy=0;strokeWidth=1;fillColor=#d5e8d4;strokeColor=#82b366;" edge="1" parent="1" source="ZQ5nlC2-4Hd2Qe9FV0_h-10" target="ZQ5nlC2-4Hd2Qe9FV0_h-12">
          <mxGeometry relative="1" as="geometry">
            <Array as="points">
              <mxPoint x="440" y="490" />
              <mxPoint x="440" y="490" />
            </Array>
          </mxGeometry>
        </mxCell>
        <mxCell id="ZQ5nlC2-4Hd2Qe9FV0_h-10" value="&lt;b&gt;Idle &amp;gt; 15 &lt;br&gt;detik&lt;/b&gt;" style="rhombus;whiteSpace=wrap;html=1;" vertex="1" parent="1">
          <mxGeometry x="400" y="400" width="80" height="80" as="geometry" />
        </mxCell>
        <mxCell id="ZQ5nlC2-4Hd2Qe9FV0_h-15" style="edgeStyle=orthogonalEdgeStyle;rounded=0;orthogonalLoop=1;jettySize=auto;html=1;exitX=0.5;exitY=1;exitDx=0;exitDy=0;fillColor=#d5e8d4;strokeColor=#82b366;" edge="1" parent="1" source="ZQ5nlC2-4Hd2Qe9FV0_h-12" target="ZQ5nlC2-4Hd2Qe9FV0_h-14">
          <mxGeometry relative="1" as="geometry" />
        </mxCell>
        <mxCell id="ZQ5nlC2-4Hd2Qe9FV0_h-12" value="&lt;b&gt;Memilih Jersey&lt;/b&gt;" style="shape=parallelogram;perimeter=parallelogramPerimeter;whiteSpace=wrap;html=1;fixedSize=1;" vertex="1" parent="1">
          <mxGeometry x="380" y="500" width="120" height="60" as="geometry" />
        </mxCell>
        <mxCell id="ZQ5nlC2-4Hd2Qe9FV0_h-17" style="edgeStyle=orthogonalEdgeStyle;rounded=0;orthogonalLoop=1;jettySize=auto;html=1;exitX=0.5;exitY=1;exitDx=0;exitDy=0;entryX=0.5;entryY=0;entryDx=0;entryDy=0;fillColor=#d5e8d4;strokeColor=#82b366;" edge="1" parent="1" source="ZQ5nlC2-4Hd2Qe9FV0_h-14" target="ZQ5nlC2-4Hd2Qe9FV0_h-16">
          <mxGeometry relative="1" as="geometry">
            <Array as="points">
              <mxPoint x="440" y="710" />
              <mxPoint x="440" y="710" />
            </Array>
          </mxGeometry>
        </mxCell>
        <mxCell id="ZQ5nlC2-4Hd2Qe9FV0_h-14" value="&lt;b&gt;Input Jumlah &lt;br&gt;Jersey&lt;/b&gt;" style="shape=parallelogram;perimeter=parallelogramPerimeter;whiteSpace=wrap;html=1;fixedSize=1;" vertex="1" parent="1">
          <mxGeometry x="380" y="590" width="120" height="60" as="geometry" />
        </mxCell>
        <mxCell id="ZQ5nlC2-4Hd2Qe9FV0_h-21" style="edgeStyle=orthogonalEdgeStyle;rounded=0;orthogonalLoop=1;jettySize=auto;html=1;exitX=0.5;exitY=1;exitDx=0;exitDy=0;entryX=0.5;entryY=0;entryDx=0;entryDy=0;fillColor=#d5e8d4;strokeColor=#82b366;" edge="1" parent="1" source="ZQ5nlC2-4Hd2Qe9FV0_h-16" target="ZQ5nlC2-4Hd2Qe9FV0_h-18">
          <mxGeometry relative="1" as="geometry">
            <Array as="points">
              <mxPoint x="440" y="830" />
              <mxPoint x="440" y="830" />
            </Array>
          </mxGeometry>
        </mxCell>
        <mxCell id="ZQ5nlC2-4Hd2Qe9FV0_h-23" style="edgeStyle=orthogonalEdgeStyle;rounded=0;orthogonalLoop=1;jettySize=auto;html=1;exitX=0;exitY=0.5;exitDx=0;exitDy=0;entryX=0.5;entryY=0;entryDx=0;entryDy=0;fillColor=#f8cecc;strokeColor=#b85450;strokeWidth=2;" edge="1" parent="1" source="ZQ5nlC2-4Hd2Qe9FV0_h-16" target="ZQ5nlC2-4Hd2Qe9FV0_h-19">
          <mxGeometry relative="1" as="geometry" />
        </mxCell>
        <mxCell id="ZQ5nlC2-4Hd2Qe9FV0_h-16" value="Total harga &lt;br&gt;&amp;gt; 1..2 Juta" style="rhombus;whiteSpace=wrap;html=1;fontStyle=1" vertex="1" parent="1">
          <mxGeometry x="390" y="680" width="100" height="80" as="geometry" />
        </mxCell>
        <mxCell id="ZQ5nlC2-4Hd2Qe9FV0_h-24" style="edgeStyle=orthogonalEdgeStyle;rounded=0;orthogonalLoop=1;jettySize=auto;html=1;exitX=0.5;exitY=1;exitDx=0;exitDy=0;fillColor=#d5e8d4;strokeColor=#82b366;" edge="1" parent="1" source="ZQ5nlC2-4Hd2Qe9FV0_h-18" target="ZQ5nlC2-4Hd2Qe9FV0_h-20">
          <mxGeometry relative="1" as="geometry" />
        </mxCell>
        <mxCell id="ZQ5nlC2-4Hd2Qe9FV0_h-18" value="&lt;b&gt;Dapat Diskon 4%&lt;/b&gt;" style="rounded=1;whiteSpace=wrap;html=1;" vertex="1" parent="1">
          <mxGeometry x="380" y="780" width="120" height="60" as="geometry" />
        </mxCell>
        <mxCell id="ZQ5nlC2-4Hd2Qe9FV0_h-25" style="edgeStyle=orthogonalEdgeStyle;rounded=0;orthogonalLoop=1;jettySize=auto;html=1;exitX=0.5;exitY=1;exitDx=0;exitDy=0;entryX=0.007;entryY=0.57;entryDx=0;entryDy=0;entryPerimeter=0;fillColor=#f8cecc;strokeColor=#b85450;strokeWidth=3;" edge="1" parent="1" source="ZQ5nlC2-4Hd2Qe9FV0_h-19" target="ZQ5nlC2-4Hd2Qe9FV0_h-20">
          <mxGeometry relative="1" as="geometry">
            <Array as="points">
              <mxPoint x="240" y="894" />
            </Array>
          </mxGeometry>
        </mxCell>
        <mxCell id="ZQ5nlC2-4Hd2Qe9FV0_h-19" value="&lt;b&gt;Tidak Dapat Diskon&lt;/b&gt;" style="rounded=1;whiteSpace=wrap;html=1;" vertex="1" parent="1">
          <mxGeometry x="180" y="790" width="120" height="60" as="geometry" />
        </mxCell>
        <mxCell id="ZQ5nlC2-4Hd2Qe9FV0_h-27" style="edgeStyle=orthogonalEdgeStyle;rounded=0;orthogonalLoop=1;jettySize=auto;html=1;exitX=0.5;exitY=1;exitDx=0;exitDy=0;entryX=0.5;entryY=0;entryDx=0;entryDy=0;fillColor=#d5e8d4;strokeColor=#82b366;" edge="1" parent="1" source="ZQ5nlC2-4Hd2Qe9FV0_h-20" target="ZQ5nlC2-4Hd2Qe9FV0_h-26">
          <mxGeometry relative="1" as="geometry" />
        </mxCell>
        <mxCell id="ZQ5nlC2-4Hd2Qe9FV0_h-20" value="&lt;b&gt;Tampilkan &lt;br&gt;Shopping Chart&lt;/b&gt;" style="shape=parallelogram;perimeter=parallelogramPerimeter;whiteSpace=wrap;html=1;fixedSize=1;" vertex="1" parent="1">
          <mxGeometry x="370" y="860" width="140" height="60" as="geometry" />
        </mxCell>
        <mxCell id="ZQ5nlC2-4Hd2Qe9FV0_h-29" style="edgeStyle=orthogonalEdgeStyle;rounded=0;orthogonalLoop=1;jettySize=auto;html=1;exitX=0.5;exitY=1;exitDx=0;exitDy=0;entryX=0.5;entryY=0;entryDx=0;entryDy=0;fillColor=#d5e8d4;strokeColor=#82b366;" edge="1" parent="1" source="ZQ5nlC2-4Hd2Qe9FV0_h-26" target="ZQ5nlC2-4Hd2Qe9FV0_h-28">
          <mxGeometry relative="1" as="geometry" />
        </mxCell>
        <mxCell id="ZQ5nlC2-4Hd2Qe9FV0_h-26" value="Total Payment" style="shape=parallelogram;perimeter=parallelogramPerimeter;whiteSpace=wrap;html=1;fixedSize=1;fontStyle=1" vertex="1" parent="1">
          <mxGeometry x="380" y="950" width="120" height="60" as="geometry" />
        </mxCell>
        <mxCell id="ZQ5nlC2-4Hd2Qe9FV0_h-28" value="Selesai" style="rounded=1;whiteSpace=wrap;html=1;fillColor=#d5e8d4;strokeColor=#82b366;arcSize=21;fontStyle=1" vertex="1" parent="1">
          <mxGeometry x="380" y="1030" width="120" height="60" as="geometry" />
        </mxCell>
        <mxCell id="ZQ5nlC2-4Hd2Qe9FV0_h-36" value="Ya" style="text;html=1;strokeColor=none;fillColor=none;align=center;verticalAlign=middle;whiteSpace=wrap;rounded=0;" vertex="1" parent="1">
          <mxGeometry x="490" y="420" width="40" height="20" as="geometry" />
        </mxCell>
        <mxCell id="ZQ5nlC2-4Hd2Qe9FV0_h-37" value="Tidak" style="text;html=1;strokeColor=none;fillColor=none;align=center;verticalAlign=middle;whiteSpace=wrap;rounded=0;" vertex="1" parent="1">
          <mxGeometry x="450" y="470" width="40" height="20" as="geometry" />
        </mxCell>
        <mxCell id="ZQ5nlC2-4Hd2Qe9FV0_h-38" value="Ya" style="text;html=1;strokeColor=none;fillColor=none;align=center;verticalAlign=middle;whiteSpace=wrap;rounded=0;" vertex="1" parent="1">
          <mxGeometry x="440" y="760" width="40" height="20" as="geometry" />
        </mxCell>
        <mxCell id="ZQ5nlC2-4Hd2Qe9FV0_h-39" value="Tidak" style="text;html=1;strokeColor=none;fillColor=none;align=center;verticalAlign=middle;whiteSpace=wrap;rounded=0;" vertex="1" parent="1">
          <mxGeometry x="310" y="730" width="40" height="20" as="geometry" />
        </mxCell>
        <mxCell id="ZQ5nlC2-4Hd2Qe9FV0_h-41" value="&lt;font style=&quot;font-size: 17px&quot;&gt;DONA SAPUTRA&lt;/font&gt;" style="text;html=1;strokeColor=none;fillColor=none;align=center;verticalAlign=middle;whiteSpace=wrap;rounded=0;fontStyle=1" vertex="1" parent="1">
          <mxGeometry x="285" y="50" width="310" height="20" as="geometry" />
        </mxCell>
      </root>
    </mxGraphModel>
  </diagram>
</mxfile>
